98.85057,2.665668
98.878326,2.591653
98.85174,2.677836
98.936126,2.667397
98.932635,2.658337
98.935625,2.66925
98.935625,2.66925
98.935625,2.66925
98.935625,2.66925
98.935625,2.66925
98.935625,2.66925
98.935625,2.66925
98.935625,2.66925
98.935625,2.66925
98.935625,2.66925
98.935625,2.66925
98.935625,2.66925
98.935625,2.66925
98.935625,2.66925
98.935625,2.66925
98.935625,2.66925
98.935625,2.66925
98.935625,2.66925
98.879952,2.734041
98.879952,2.734041
98.879952,2.734041
98.859652,2.741797
98.859652,2.741797
98.830936,2.767091
98.830936,2.767091
98.830936,2.767091
98.816122,2.780436
98.697102,2.530188
98.697102,2.530188
98.697469,2.530952
98.696055,2.530572
98.695533,2.532388
98.697002,2.529772
98.931208,2.658509
98.93674,2.666448
98.929002,2.600169
98.943563,2.661461
98.9381,2.666099
98.933775,2.654158
98.933775,2.654158
98.933775,2.654158
98.933775,2.654158
98.933611,2.659166
98.933775,2.654158
98.933775,2.654158
98.933775,2.654158
98.933775,2.654158
98.933775,2.654158
98.933775,2.654158
98.933775,2.654158
98.933775,2.654158
98.933775,2.654158
98.933775,2.654158
98.933775,2.654158
98.933775,2.654158
98.933775,2.654158
98.933775,2.654158
98.933775,2.654158
98.866111,2.7425
98.855473,2.669025
98.855473,2.669025
98.746044,2.851011
98.768388,2.832516
98.831941,2.763822
98.922725,2.695161
98.819763,2.778874
98.924436,2.689519
98.922725,2.695161
98.922725,2.695161
98.924436,2.689519
98.92963,2.679836
98.930847,2.664938
98.92963,2.679836
98.988841,2.766083
98.826802,2.777216
98.926308,2.69328
98.928986,2.665947
98.860211,2.650847
98.860169,2.650972
98.855677,2.670575
98.855677,2.670575
98.855677,2.670575
98.965647,2.647205
98.964863,2.647605
98.964863,2.647605
98.860527,2.652597
98.860594,2.651311
98.860655,2.651311
98.860633,2.65123
98.860575,2.651261
98.860575,2.651261
98.860575,2.651261
98.860575,2.651261
98.860575,2.651261
98.860575,2.651261
98.860575,2.651261
98.860575,2.651261
98.83678,2.678636
98.83678,2.678636
98.836655,2.678613
98.836352,2.679127
98.835972,2.678902
98.836297,2.679052
98.836505,2.678836
98.836522,2.678788
98.836513,2.678797
98.836513,2.678797
98.836555,2.678722
98.836561,2.678772
98.836563,2.67878
98.836547,2.678847
98.836669,2.678655
98.836669,2.678655
98.836669,2.678655
98.836669,2.678655
98.7444,2.752152
98.7444,2.752152
98.7444,2.752152
98.7444,2.752152
98.7444,2.752152
98.7444,2.752152
98.7444,2.752152
98.7444,2.752152
98.7444,2.752152
98.7444,2.752152
98.7444,2.752152
98.7444,2.752152
98.7444,2.752152
98.7444,2.752152
98.744086,2.752336
98.830708,2.679116
98.763152,2.740755
98.763111,2.740586
98.74978,2.749427
98.749672,2.749438
98.830669,2.679205
98.830616,2.679188
98.819961,2.778725
98.856138,2.670086
98.925461,2.656319
98.855747,2.670352
98.856138,2.670086
98.639656,2.552084
98.927777,2.664722
98.927777,2.664722
98.927777,2.664722
98.927777,2.664722
98.927777,2.664722
98.927777,2.664722
98.927777,2.664722
98.927777,2.665
98.927777,2.665
98.927777,2.664722
98.927777,2.664722
98.927777,2.664722
98.927777,2.664722
98.936944,2.668333
98.936944,2.668333
98.936944,2.668333
98.936944,2.668611
98.936944,2.668888
98.936944,2.669166
98.936944,2.669166
98.936944,2.669166
98.9375,2.668333
98.9375,2.668333
98.936944,2.668333
98.936944,2.668333
98.937222,2.668611
98.937222,2.668611
98.936944,2.669166
98.936944,2.669166
98.936944,2.669166
98.936944,2.669166
98.88633,2.678802
98.853744,2.67005
98.872305,2.617352
98.936252,2.526977
98.936272,2.526902
98.936341,2.526922
98.929475,2.532344
98.860022,2.668258
98.672804,2.617257
98.672804,2.617257
98.714379,2.527786
98.8,2.8
98.931241,2.660802
98.931241,2.660802
98.934363,2.658177
98.934363,2.658177
98.934363,2.658177
98.934363,2.658177
98.932186,2.660363
98.932186,2.660363
98.682375,2.617397
98.690763,2.609466
98.690763,2.609466
98.696388,2.607777
98.81103,2.706361
98.81103,2.706361
98.81103,2.706361
98.69483,2.618008
98.69483,2.618008
98.69483,2.618008
98.69483,2.618008
98.69483,2.618008
98.69483,2.618008
98.69483,2.618008
98.69483,2.618008
98.69483,2.618008
98.69513,2.617836
98.69513,2.617836
98.69513,2.617836
98.69513,2.617836
98.853055,2.669444
98.8475,2.659444
98.852222,2.668611
98.842222,2.678611
98.85985,2.668316
98.85985,2.668316
98.85985,2.668316
98.85985,2.668316
98.85985,2.668316
98.85985,2.668316
98.85985,2.668316
98.85985,2.668316
98.85985,2.668316
98.85985,2.668316
98.85985,2.668316
98.819722,2.692222
98.819722,2.692222
98.819722,2.692222
98.819722,2.692222
98.819722,2.692222
98.853252,2.67153
98.853252,2.67153
98.853252,2.67153
98.853252,2.67153
98.853252,2.67153
98.853252,2.67153
98.853252,2.67153
98.853252,2.67153
98.853252,2.67153
98.853252,2.67153
98.853252,2.67153
98.843597,2.678958
98.843597,2.678958
98.843597,2.678958
98.843597,2.678958
98.843597,2.678958
98.834419,2.678044
98.631938,2.593313
98.786011,2.588202
98.850913,2.674013
98.92925,2.600161
98.67642,2.579488
98.667697,2.576219
98.856085,2.670427
98.856085,2.670427
98.856085,2.670427
98.856085,2.670427
98.856085,2.670427
98.856085,2.670427
98.856085,2.670427
98.856085,2.670427
98.856085,2.670427
98.856085,2.670427
98.834477,2.678121
98.853888,2.676666
98.930833,2.660833
98.846483,2.675741
98.846483,2.675741
98.846483,2.675741
98.846483,2.675741
98.850574,2.677472
98.850574,2.677472
98.850574,2.677472
98.850574,2.677472
98.850574,2.677472
98.850574,2.677472
98.856333,2.645986
98.860227,2.650513
98.860227,2.650513
98.846269,2.653386
98.846269,2.653386
98.846269,2.653386
98.846269,2.653386
98.846269,2.653386
98.846269,2.653386
98.846269,2.653386
98.846269,2.653386
98.846269,2.653386
98.853252,2.67153
98.853252,2.67153
98.843022,2.678994
98.843022,2.678994
98.843022,2.678994
98.843022,2.678994
98.843022,2.678994
98.843022,2.678994
98.843022,2.678994
98.843597,2.678958
98.843597,2.678958
98.843597,2.678958
98.843597,2.678958
98.843597,2.678958
98.843597,2.678958
98.843597,2.678958
98.843111,2.678858
98.843111,2.678858
98.843111,2.678858
98.843111,2.678858
98.843408,2.679002
98.843408,2.679002
98.843408,2.679002
98.843408,2.679002
98.843022,2.678994
98.843022,2.678994
98.843022,2.678994
98.843022,2.678994
98.843597,2.678958
98.843597,2.678958
98.843597,2.678958
98.836566,2.678883
98.880528,2.684501
98.855855,2.676688
98.816666,2.583333
98.843526,2.67889
98.930715,2.665936
98.841041,2.682313
98.845989,2.676948
98.761602,2.75655
98.832947,2.677641
98.930855,2.66048
98.836177,2.67908
98.834811,2.678136
98.831558,2.677752
98.846252,2.654972
98.9259,2.684699
98.935436,2.665908
98.92955,2.665938
98.926284,2.68375
98.936755,2.666219
98.651304,2.561449
98.661957,2.574568
98.648514,2.559113
98.669414,2.577977
98.64963,2.567719
98.667697,2.576219
98.667697,2.576219
98.685432,2.597505
98.969768,2.510076
98.685282,2.598373
98.973062,2.50521
98.860677,2.651971
98.856225,2.66973
98.697102,2.607758
98.834992,2.681819
98.834992,2.681819
98.856085,2.670427
98.834992,2.681819
98.834992,2.681819
98.849122,2.673277
98.834992,2.681819
98.834992,2.681819
98.849122,2.673277
98.849122,2.673277
98.856116,2.670855
98.8756,2.6845
98.836773,2.678593
98.849122,2.673277
98.836773,2.678593
98.849122,2.673277
98.837149,2.672988
98.836773,2.678593
98.836773,2.678593
98.836773,2.678593
98.820734,2.690982
98.836773,2.678593
98.836773,2.678593
98.820798,2.691089
98.836773,2.678593
98.83511,2.678861
98.839102,2.678913
98.933193,2.675142
98.856116,2.670855
98.856116,2.670855
98.856225,2.658498
98.856225,2.658498
98.856225,2.658498
98.856225,2.658498
98.856225,2.658498
98.856225,2.658498
98.856225,2.658498
98.856225,2.658498
98.856225,2.658498
98.856225,2.658498
98.856225,2.658498
98.856225,2.658498
98.856225,2.658498
98.856225,2.658498
98.856225,2.658498
98.856225,2.658498
98.856225,2.658498
98.930511,2.658788
98.930511,2.658788
98.930511,2.658788
98.930511,2.658788
98.930511,2.658788
98.877339,2.593389
98.877339,2.593389
98.877339,2.593389
98.856225,2.658498
98.856225,2.658498
98.856225,2.658498
98.856225,2.658498
98.856225,2.658498
98.856225,2.658498
98.856225,2.658498
98.856225,2.658498
98.856225,2.658498
98.856225,2.658498
98.856225,2.658498
98.856225,2.658498
98.856225,2.658498
98.877339,2.593389
98.877339,2.593389
98.877339,2.593389
98.877339,2.593389
98.877339,2.593389
98.877339,2.593389
98.877339,2.593389
98.877339,2.593389
98.877339,2.593389
98.877339,2.593389
98.877339,2.593389
98.877339,2.593389
98.831827,2.678914
98.831827,2.678914
98.831827,2.678914
98.831827,2.678914
98.831827,2.678914
98.831827,2.678914
98.872983,2.596583
98.872983,2.596583
98.872983,2.596583
98.872983,2.596583
98.872983,2.596583
98.831827,2.678914
98.831827,2.678914
98.831827,2.678914
98.831827,2.678914
98.831827,2.678914
98.831827,2.678914
98.831827,2.678914
98.831827,2.678914
98.831827,2.678914
98.831827,2.678914
98.831827,2.678914
98.831827,2.678914
98.831827,2.678914
98.831827,2.678914
98.831827,2.678914
98.86764,2.599562
98.86764,2.599562
98.86764,2.599562
98.86764,2.599562
98.86764,2.599562
98.86764,2.599562
98.86764,2.599562
98.86764,2.599562
98.86764,2.599562
98.86764,2.599562
98.86764,2.599562
98.86764,2.599562
98.86764,2.599562
98.87161,2.597376
98.87161,2.597376
98.87161,2.597376
98.87161,2.597376
98.87161,2.597376
98.87161,2.597376
98.87161,2.597376
98.87161,2.597376
98.87161,2.597376
98.87161,2.597376
98.87161,2.597376
98.87161,2.597376
98.87161,2.597376
98.87161,2.597376
98.930511,2.658788
98.879313,2.658337
98.879313,2.658337
98.879313,2.658337
98.879313,2.658337
98.930511,2.658788
98.74561,2.753075
98.74561,2.753075
98.74561,2.753075
98.74561,2.753075
98.74561,2.753075
98.74561,2.753075
98.74561,2.753075
98.74561,2.753075
98.74561,2.753075
98.74561,2.753075
98.74561,2.753075
98.74561,2.753075
98.74561,2.753075
98.74561,2.753075
98.74561,2.753075
98.74561,2.753075
98.74561,2.753075
98.74561,2.753075
98.74561,2.753075
98.74561,2.753075
98.74561,2.753075
98.74561,2.753075
98.74561,2.753075
98.74561,2.753075
98.74561,2.753075
98.74561,2.753075
98.74561,2.753075
98.74561,2.753075
98.74561,2.753075
98.74561,2.753075
98.74561,2.753075
98.74561,2.753075
98.74561,2.753075
98.74561,2.753075
98.74561,2.753075
98.74561,2.753075
98.74561,2.753075
98.74561,2.753075
98.74561,2.753075
98.74561,2.753075
98.74561,2.753075
98.74561,2.753075
98.74561,2.753075
98.74561,2.753075
98.74561,2.753075
98.74561,2.753075
98.74561,2.753075
98.931165,2.660867
98.931165,2.660867
98.931165,2.660867
98.931165,2.660867
98.931165,2.660867
98.83638,2.678952
98.836616,2.680086
98.839563,2.676933
98.839563,2.676933
98.839563,2.676933
98.856302,2.674591
98.926711,2.661227
98.926711,2.661227
98.926711,2.661227
98.930433,2.660933
98.819888,2.778902
98.819888,2.778902
98.819888,2.778902
98.930983,2.660052
98.703725,2.602542
98.996202,2.615716
98.695013,2.611869
98.871433,2.618372
98.967272,2.483958
98.978311,2.453827
98.978405,2.453841
98.70508,2.736888
98.639977,2.552144
98.738961,2.60038
98.879313,2.658337
98.865698,2.658391
98.865698,2.658391
98.855988,2.658466
98.855988,2.658466
98.855988,2.658466
98.855988,2.658466
98.855988,2.658466
98.855988,2.658466
98.855988,2.658466
98.855988,2.658466
98.930511,2.658788
98.930511,2.658788
98.930511,2.658788
98.930511,2.658788
98.930511,2.658788
98.930511,2.658788
98.930511,2.658788
98.930511,2.658788
98.930511,2.658788
98.636219,2.63013
98.862527,2.652651
98.74561,2.753075
98.74561,2.753075
98.74561,2.753075
98.74561,2.753075
98.74561,2.753075
98.74561,2.753075
98.74561,2.753075
98.931165,2.660867
98.931165,2.660867
98.931165,2.660867
98.926338,2.706583
98.840505,2.679361
98.908525,2.6645
98.908525,2.6645
98.824891,2.776472
98.824891,2.776472
98.848588,2.66018
98.837272,2.672725
98.834763,2.678027
98.834763,2.678027
98.83638,2.678952
98.83638,2.678952
98.83638,2.678952
98.83638,2.678952
98.836616,2.680086
98.839563,2.676933
98.839563,2.676933
98.839563,2.676933
98.839563,2.676933
98.839563,2.676933
98.839563,2.676933
98.839586,2.679475
98.853538,2.649205
98.849266,2.650824
98.852777,2.646072
98.856241,2.645647
98.856241,2.645647
98.856241,2.645647
98.860594,2.651305
98.860594,2.651305
98.860594,2.651305
98.860594,2.651305
98.860594,2.651305
98.860594,2.651305
98.8608,2.651822
98.8608,2.651822
98.858038,2.674633
98.860966,2.670202
98.925933,2.684888
98.859336,2.673722
98.851077,2.675994
98.8756,2.6845
98.8613,2.62354
98.703725,2.602542
98.703725,2.602542
98.703725,2.602542
98.703725,2.602542
98.703725,2.602542
98.703725,2.602542
98.703725,2.602542
98.703725,2.602542
98.703725,2.602542
98.703725,2.602542
98.703725,2.602542
98.703725,2.602542
98.703725,2.602542
98.703725,2.602542
98.703725,2.602542
98.744366,2.752271
98.744366,2.752271
98.744366,2.752271
98.744366,2.752271
98.744366,2.752271
98.855211,2.676847
98.744113,2.752675
98.854613,2.676558
98.8756,2.6845
98.836952,2.680686
98.938214,2.663171
98.930393,2.660867
98.930958,2.665457
98.930958,2.665457
98.861234,2.668078
98.847258,2.666761
98.849105,2.666558
98.933722,2.662777
98.945125,2.668236
98.942911,2.666611
98.945036,2.668244
98.916475,2.660083
98.691888,2.702313
98.854236,2.668913
98.747163,2.52283
98.746247,2.523091
98.726052,2.537488
98.853969,2.669694
98.853172,2.670169
98.843405,2.678069
98.836541,2.678913
98.836397,2.678986
98.836466,2.679288
98.839355,2.678513
98.839755,2.67955
98.841052,2.67933
98.842288,2.678786
98.849144,2.67318
98.851675,2.672583
98.852341,2.671344
98.854355,2.668497
98.845061,2.665897
98.772541,2.743033
98.69168,2.694644
98.84508,2.666038
98.85418,2.668883
98.844483,2.662155
98.839816,2.668947
98.834466,2.676794
98.833413,2.677494
98.856411,2.657163
98.856372,2.657124
98.857922,2.669283
98.852313,2.671272
98.854447,2.668969
98.790319,2.733677
98.701986,2.601363
98.704608,2.601455
98.709036,2.603013
98.731044,2.604577
98.691061,2.610713
98.671308,2.57868
98.643861,2.560019
98.63998,2.552138
98.639913,2.552144
98.63963,2.552225
98.635866,2.564702
98.635886,2.564733
98.654316,2.576313
98.685752,2.591913
98.712694,2.603352
98.683316,2.585286
98.703686,2.602525
98.704438,2.603063
98.70465,2.603038
98.9783,2.467447
98.860534,2.673492
98.861488,2.671255
98.869722,2.612766
98.859529,2.667928
98.859529,2.667928
98.859529,2.667928
98.859529,2.667928
98.860525,2.651453
98.744469,2.752208
98.76979,2.828655
98.779444,2.810277
98.779444,2.810277
98.779444,2.809999
98.779444,2.810277
98.886719,2.440074
98.744355,2.752314
98.744484,2.752239
98.744355,2.752314
98.869831,2.602068
98.888136,2.442332
98.846837,2.662303
98.863649,2.645541
98.934681,2.664732
98.860439,2.667885
98.665809,2.568909
98.687782,2.541385
98.859529,2.667928
98.86243,2.652628
98.862318,2.652551
98.854773,2.677406
98.847415,2.680811
98.836696,2.678626
98.836499,2.678871
98.836673,2.678635
98.836497,2.678868
98.836519,2.678782
98.836485,2.67881
98.836541,2.678798
98.836415,2.679515
98.836904,2.680485
98.744479,2.752196
98.744061,2.754265
98.744467,2.752186
98.744475,2.752191
98.744473,2.752198
98.744469,2.752208
98.744446,2.752179
98.74447,2.752208
98.744478,2.752196
98.836511,2.699675
98.854868,2.669706
98.853097,2.669673
98.850903,2.676901
98.857588,2.675338
98.85933,2.668556
98.856337,2.66936
98.911944,2.660833
98.931749,2.665395
98.69261,2.610559
98.744484,2.752239
98.744484,2.752239
98.744484,2.752239
98.744484,2.752239
98.744484,2.752239
98.744484,2.752239
98.744484,2.752239
98.744484,2.752239
98.744484,2.752239
98.744484,2.752239
98.744355,2.752314
98.744484,2.752239
98.744484,2.752239
98.869735,2.602154
98.869735,2.602154
98.869735,2.602154
98.829942,2.674904
98.829942,2.674904
98.829942,2.674904
98.829942,2.674904
98.829942,2.674904
98.930164,2.66099
98.931208,2.660234
98.854229,2.65763
98.854875,2.677319
98.845763,2.678036
98.877936,2.591136
98.866394,2.621255
98.866791,2.619858
98.766838,2.742719
98.689469,2.684011
98.675072,2.62018
98.85063,2.677519
98.92488,2.661802
98.925561,2.661825
98.9302,2.661052
98.930222,2.661036
98.7452,2.593727
98.639763,2.551947
98.924921,2.676868
98.934029,2.669896
98.854725,2.677121
98.930865,2.659488
98.861198,2.652408
98.83648,2.678863
98.836422,2.678861
98.7442,2.752925
98.744488,2.752352
98.744494,2.752319
98.744327,2.752352
98.744263,2.752338
98.858736,2.673169
98.858736,2.673169
98.858736,2.673169
98.858736,2.673169
98.843416,2.67907
98.879184,2.710722
98.861311,2.668251
98.861478,2.668203
98.930778,2.659413
98.939266,2.66614
98.85601,2.672591
98.978205,2.459533
98.856621,2.670609
98.857212,2.669226
98.860398,2.673534
98.843416,2.67907
98.843416,2.67907
98.843416,2.67907
98.843416,2.67907
98.843416,2.67907
98.639666,2.551999
98.862166,2.668333
98.6515,2.561499
98.6515,2.561499
98.64,2.552166
98.64,2.552166
98.64,2.552166
98.846333,2.451333
98.744333,2.752166
98.912666,2.5425
98.918333,2.5395
98.938166,2.526666
98.971333,2.4765
98.9725,2.476333
98.897666,2.558999
98.897666,2.558999
98.897666,2.558999
98.897666,2.558999
98.884,2.578333
98.810005,2.699065
98.851203,2.66446
98.783891,2.731877
98.845195,2.602692
98.847845,2.59878
98.700978,2.602585
98.700335,2.603271
98.867855,2.656023
98.863127,2.651191
98.692588,2.615553
98.930222,2.661
98.930222,2.661
98.92313,2.66151
98.724659,2.759926
98.766984,2.742352
98.855525,2.669135
98.855237,2.669162
98.856353,2.669055
98.818833,2.607166
98.818833,2.607166
98.861117,2.671241
98.917826,2.695194
98.675594,2.537612
98.619289,2.585715
98.857169,2.672613
98.857169,2.672613
98.857169,2.672613
98.857169,2.672613
98.857169,2.672613
98.850946,2.673736
98.850946,2.673736
98.850946,2.673736
98.854647,2.67365
98.854647,2.67365
98.857501,2.666976
98.859744,2.671003
98.855355,2.670349
98.85542,2.666609
98.85542,2.666609
98.85542,2.666609
98.85542,2.666609
98.85542,2.666609
98.851611,2.665079
98.851611,2.665079
98.85263,2.665834
98.853907,2.666311
98.853907,2.666311
98.851697,2.660374
98.851697,2.660374
98.851697,2.660374
98.851697,2.660374
98.851697,2.660374
98.851697,2.660374
98.851697,2.660374
98.851697,2.660374
98.851697,2.660374
98.851697,2.660374
98.851697,2.660374
98.851697,2.660374
98.851697,2.660374
98.851697,2.660374
98.851203,2.661719
98.851203,2.661719
98.851203,2.661719
98.851203,2.661719
98.851203,2.661719
98.851203,2.661719
98.850839,2.66322
98.850839,2.66322
98.850839,2.66322
98.850839,2.66322
98.851611,2.665079
98.851611,2.665079
98.85263,2.665834
98.853349,2.666011
98.853349,2.666011
98.854744,2.666547
98.854744,2.666547
98.856117,2.666954
98.857501,2.666976
98.859164,2.666911
98.859164,2.666911
98.859164,2.666911
98.857169,2.672613
98.857169,2.672613
98.857169,2.672613
98.857169,2.672613
98.857169,2.672613
98.857169,2.672613
98.857169,2.672613
98.857169,2.672613
98.857169,2.672613
98.857169,2.672613
98.858671,2.671584
98.857169,2.672613
98.860623,2.670105
98.860623,2.670105
98.861439,2.667319
98.861439,2.667319
98.850324,2.671563
98.850324,2.671563
98.84968,2.670941
98.849208,2.670456
98.848607,2.670446
98.848607,2.670446
98.848607,2.670446
98.848607,2.670446
98.848607,2.670446
98.857169,2.672613
98.882537,2.434144
98.887242,2.428023
98.885428,2.430103
98.8014,2.476066
98.801631,2.464924
98.88015,2.432761
98.633365,2.58863
98.743464,2.521813
98.886201,2.43259
98.805606,2.711328
98.856085,2.670427
98.856085,2.670427
98.856085,2.670427
98.856085,2.670427
98.856085,2.670427
98.856085,2.670427
98.856085,2.670427
98.856085,2.670427
98.856085,2.670427
98.856085,2.670427
98.856085,2.670427
98.856085,2.670427
98.856085,2.670427
98.856085,2.670427
98.856085,2.670427
98.856085,2.670427
98.856085,2.670427
98.856085,2.670427
98.856085,2.670427
98.856085,2.670427
98.856085,2.670427
98.848607,2.670446
98.848607,2.670446
98.848607,2.670446
98.848607,2.670446
98.848607,2.670446
98.848607,2.670446
98.848607,2.670446
98.848607,2.670446
98.848607,2.670446
98.848607,2.670446
98.848607,2.670446
98.848607,2.670446
98.848607,2.670446
98.848607,2.670446
98.848607,2.670446
98.848607,2.670446
98.84968,2.670941
98.84968,2.670941
98.84968,2.670941
98.84968,2.670941
98.84968,2.670941
98.84968,2.670941
98.84968,2.670941
98.84968,2.670941
98.85071,2.672227
98.85086,2.673058
98.852598,2.673959
98.852598,2.673959
98.854057,2.673873
98.854057,2.673873
98.854057,2.673873
98.855216,2.673466
98.85601,2.673144
98.85601,2.673144
98.85601,2.673144
98.857169,2.672613
98.857169,2.672613
98.857169,2.672613
98.857169,2.672613
98.857169,2.672613
98.857169,2.672613
98.857169,2.672613
98.857169,2.672613
98.857169,2.672613
98.857169,2.672613
98.857169,2.672613
98.857169,2.672613
98.857169,2.672613
98.857169,2.672613
98.857169,2.672613
98.857169,2.672613
98.857169,2.672613
98.857169,2.672613
98.857169,2.672613
98.857169,2.672613
98.925662,2.701909
98.856675,2.671729
98.856675,2.671729
98.856675,2.671729
98.856675,2.671729
98.856675,2.671729
98.856675,2.671729
98.856675,2.671729
98.856675,2.671729
98.856675,2.671729
98.856675,2.671729
98.856675,2.671729
98.856675,2.671729
98.856675,2.671729
98.856675,2.671729
98.856675,2.671729
98.856675,2.671729
98.856675,2.671729
98.856675,2.671729
98.856675,2.671729
98.856675,2.671729
98.856675,2.671729
98.856675,2.671729
98.856675,2.671729
98.856675,2.671729
98.856675,2.671729
98.856675,2.671729
98.856675,2.671729
98.856675,2.671729
98.856675,2.671729
98.856675,2.671729
98.856675,2.671729
98.856675,2.671729
98.856675,2.671729
98.856675,2.671729
98.856675,2.671729
98.856675,2.671729
98.856675,2.671729
98.856675,2.671729
98.856675,2.671729
98.856675,2.671729
98.856675,2.671729
98.856675,2.671729
98.856675,2.671729
98.856675,2.671729
98.856675,2.671729
98.856675,2.671729
98.856675,2.671729
98.856675,2.671729
98.856675,2.671729
98.856675,2.671729
98.856675,2.671729
98.856675,2.671729
98.856675,2.671729
98.856675,2.671729
98.856675,2.671729
98.856675,2.671729
98.856675,2.671729
98.856675,2.671729
98.856675,2.671729
98.856675,2.671729
98.856675,2.671729
98.856675,2.671729
98.856675,2.671729
98.856675,2.671729
98.856675,2.671729
98.856675,2.671729
98.856675,2.671729
98.856675,2.671729
98.856675,2.671729
98.856675,2.671729
98.856675,2.671729
98.856675,2.671729
98.856675,2.671729
98.856675,2.671729
98.856675,2.671729
98.856675,2.671729
98.856675,2.671729
98.856675,2.671729
98.856675,2.671729
98.856675,2.671729
98.856675,2.671729
98.856675,2.671729
98.856675,2.671729
98.856675,2.671729
98.856675,2.671729
98.856675,2.671729
98.856675,2.671729
98.856675,2.671729
98.856675,2.671729
98.856675,2.671729
98.856675,2.671729
98.856675,2.671729
98.856675,2.671729
98.856675,2.671729
98.856675,2.671729
98.856675,2.671729
98.856675,2.671729
98.856675,2.671729
98.856675,2.671729
98.856675,2.671729
98.856675,2.671729
98.856675,2.671729
98.856675,2.671729
98.856675,2.671729
98.856675,2.671729
98.856675,2.671729
98.856675,2.671729
98.856675,2.671729
98.856675,2.671729
98.856675,2.671729
98.944137,2.719548
98.944137,2.719548
98.944137,2.719548
98.944137,2.719548
98.944137,2.719548
98.86631,2.6279
98.861702,2.652678
98.851793,2.678097
98.862534,2.653279
98.860605,2.65144
98.86116,2.63716
98.865366,2.628072
98.867848,2.625717
98.867937,2.625625
98.86631,2.6279
98.861504,2.650879
98.86015,2.650777
98.865495,2.628122
98.865625,2.62785
98.74435,2.752239
98.853135,2.6778
98.861693,2.652687
98.860707,2.6513
98.860518,2.65132
98.86116,2.651908
98.86158,2.636098
98.865452,2.628072
98.74435,2.752239
98.867937,2.625662
98.868188,2.625472
98.870773,2.618983
98.870773,2.618983
98.869795,2.6179
98.869743,2.619326
98.868971,2.613839
98.869743,2.619326
98.869743,2.619326
98.869743,2.619326
98.869057,2.613325
98.852458,2.677255
98.868027,2.668026
98.894833,2.561833
98.884,2.577666
98.884166,2.577666
98.883166,2.582166
98.804512,2.712437
98.856085,2.670427
98.856085,2.670427
98.856085,2.670427
98.82613,2.682489
98.826119,2.682494
98.826098,2.682521
98.86116,2.63716
98.865366,2.628072
98.867848,2.625717
98.867937,2.625625
98.86631,2.6279
98.861504,2.650879
98.86015,2.650777
98.865495,2.628122
98.865625,2.62785
98.74435,2.752239
98.853135,2.6778
98.861693,2.652687
98.860707,2.6513
98.860518,2.65132
98.86116,2.651908
98.86158,2.636098
98.865452,2.628072
98.74435,2.752239
98.867937,2.625662
98.868188,2.625472
98.870773,2.618983
98.870773,2.618983
98.869795,2.6179
98.869743,2.619326
98.868971,2.613839
98.869743,2.619326
98.869743,2.619326
98.869743,2.619326
98.869057,2.613325
98.852458,2.677255
98.868027,2.668026
98.894833,2.561833
98.884,2.577666
98.884166,2.577666
98.883166,2.582166
98.804512,2.712437
98.805606,2.711328
98.856085,2.670427
98.856085,2.670427
98.856085,2.670427
98.856085,2.670427
98.856085,2.670427
98.856085,2.670427
98.856085,2.670427
98.856085,2.670427
98.856085,2.670427
98.856085,2.670427
98.856085,2.670427
98.856085,2.670427
98.856085,2.670427
98.856085,2.670427
98.856085,2.670427
98.856085,2.670427
98.856085,2.670427
98.856085,2.670427
98.856085,2.670427
98.856085,2.670427
98.856085,2.670427
98.856085,2.670427
98.856085,2.670427
98.856085,2.670427
98.82613,2.682489
98.826119,2.682494
98.826098,2.682521
98.945508,2.668522
98.945394,2.668602
98.931116,2.663636
98.931091,2.662836
98.930475,2.660949
98.930402,2.660897
98.914797,2.663172
98.97845,2.453838
98.963463,2.490988
98.868191,2.625028
98.700299,2.734385
98.826076,2.682548
98.826119,2.682489
98.827171,2.681315
98.851547,2.658423
98.898051,2.660631
98.903533,2.664508
98.867877,2.666527
98.866466,2.666719
98.854586,2.677619
98.854561,2.677719
98.839602,2.679508
98.847008,2.674091
98.803605,2.720894
98.803452,2.721233
98.782325,2.739886
98.763194,2.740477
98.763175,2.7405
98.744108,2.752136
98.737088,2.754627
98.731333,2.757225
98.712838,2.745716
98.712769,2.745591
98.712875,2.745691
98.692086,2.706094
98.692002,2.611327
98.691966,2.611375
98.693777,2.607355
98.696613,2.607002
98.722508,2.560427
98.734652,2.5301
98.761438,2.517761
98.7708,2.513425
98.771258,2.513302
98.82598,2.465227
98.826127,2.465177
98.826102,2.465194
98.857588,2.445247
98.873536,2.436294
98.873636,2.436305
98.873458,2.436272
98.881127,2.437694
98.889208,2.435519
98.928502,2.437125
98.940761,2.4461
98.930019,2.532347
98.923622,2.533233
98.913133,2.542138
98.902441,2.553694
98.902397,2.553697
98.902558,2.55395
98.902497,2.553899
98.900661,2.556061
98.872261,2.617416
98.872288,2.617441
98.872327,2.617427
98.913222,2.556972
98.90915,2.560586
98.85098,2.675672
98.850974,2.675694
98.851008,2.675711
98.851072,2.675991
98.851077,2.675994
98.852224,2.668497
98.849194,2.629422
98.863247,2.624541
98.867055,2.624244
98.867397,2.624666
98.866688,2.626597
98.865325,2.629169
98.864733,2.630597
98.861877,2.640122
98.863172,2.641547
98.865947,2.648519
98.862947,2.651424
98.862625,2.651727
98.862516,2.652625
98.862594,2.652711
98.862558,2.652797
98.862563,2.652805
98.859361,2.655572
98.857572,2.655452
98.854641,2.6582
98.848158,2.659938
98.8483,2.660661
98.84895,2.663636
98.84893,2.666316
98.850874,2.666919
98.852877,2.669516
98.857866,2.669358
98.858263,2.668913
98.858577,2.668652
98.858677,2.668577
98.861777,2.670997
98.850977,2.676061
98.850977,2.676061
98.851486,2.67595
98.852686,2.674883
98.852608,2.673552
98.850972,2.667041
98.848991,2.663627
98.848508,2.660174
98.847622,2.659822
98.846897,2.659436
98.939293,2.69021
98.925938,2.685272
98.930477,2.665086
98.924002,2.68753
98.923788,2.688377
98.923694,2.688427
98.923722,2.688461
98.923722,2.688461
98.92398,2.688255
98.865972,2.654461
98.923858,2.688275
98.862166,2.653877
98.911886,2.630129
98.8591,2.659111
98.86528,2.659797
98.863905,2.648136
98.862168,2.648317
98.861975,2.648772
98.860398,2.650862
98.863905,2.646763
98.861161,2.650191
98.862533,2.650191
98.862533,2.648822
98.862533,2.648136
98.8282,2.680372
98.830261,2.676944
98.828888,2.679
98.829574,2.678313
98.826141,2.677627
98.8282,2.677627
98.8282,2.680372
98.8282,2.678313
98.828888,2.676944
98.759536,2.748961
98.762283,2.748275
98.760911,2.749647
98.75885,2.746902
98.763655,2.746902
98.763655,2.746216
98.792494,2.744844
98.757477,2.737986
98.759536,2.7373
98.757477,2.735927
98.757477,2.736613
98.757477,2.739358
98.758163,2.733872
98.75885,2.737986
98.756102,2.737986
98.75885,2.733872
98.757477,2.7325
98.757477,2.736613
98.758163,2.734555
98.758163,2.735244
98.759536,2.7373
98.756788,2.7373
98.756554,2.735264
98.756102,2.735244
98.759536,2.736613
98.756102,2.738672
98.75885,2.735244
98.760222,2.731813
98.756102,2.736613
98.756788,2.736613
98.755416,2.736613
98.757477,2.737986
98.756788,2.737986
98.756102,2.736613
98.756102,2.741416
98.756788,2.733186
98.757477,2.738672
98.757627,2.7397
98.758163,2.739358
98.988103,2.62447
98.851633,2.666911
98.933866,2.654266
98.853615,2.668026
98.852101,2.667436
98.853904,2.669193
98.932635,2.658337
98.860044,2.65057
98.860345,2.650913
98.860302,2.65057
98.860517,2.650742
98.860431,2.650827
98.961838,2.495316
98.725663,2.539719
98.950311,2.517636
98.851833,2.677833
98.758163,2.738672
98.826827,2.692033
98.859961,2.672313
98.859786,2.668369
98.860816,2.668369
98.860816,2.666997
98.861161,2.668024
98.860475,2.667683
98.861847,2.668024
98.861181,2.667892
98.861161,2.667683
98.861278,2.667983
98.860816,2.667683
98.860475,2.666655
98.860645,2.666627
98.860559,2.666933
98.86013,2.667683
98.877638,2.646763
98.880386,2.662538
98.916777,2.654994
98.843296,2.679182
98.844391,2.676042
98.843296,2.679182
98.843296,2.679182
98.843296,2.679182
98.843296,2.679182
98.843296,2.679182
98.82436,2.687617
98.915433,2.68625
99.0796,2.548699
98.859214,2.669569
98.915319,2.710551
98.844165,2.677714
98.858392,2.666836
98.849573,2.665882
98.857641,2.669483
98.769842,2.828315
98.939534,2.663648
98.851547,2.676428
98.734355,2.840866
98.737855,2.835588
98.741169,2.830594
98.742875,2.828025
98.744094,2.826186
98.744466,2.825622
98.752666,2.813263
98.760644,2.801241
98.626055,2.728666
98.639955,2.552122
98.8618,2.668293
98.856135,2.669494
98.860255,2.670094
98.856951,2.669836
98.859526,2.670137
98.859869,2.670694
98.852316,2.670522
98.851625,2.666169
98.850767,2.668167
98.862072,2.670132
98.853607,2.545244
98.888282,2.615811
98.888454,2.617303
98.881288,2.631965
98.876481,2.64714
98.860431,2.650913
98.860173,2.650999
98.860474,2.650793
98.860602,2.650484
98.860302,2.650707
98.860388,2.650621
98.860388,2.650656
98.860216,2.650621
98.860173,2.650484
98.860388,2.650913
98.860259,2.65057
98.939266,2.661424
98.860216,2.650827
98.937893,2.656915
98.937249,2.656366
98.915233,2.657394
98.861332,2.668036
98.851375,2.677714
98.861396,2.667908
98.92648,2.66365
98.861332,2.668036
98.89733,2.559066
98.931008,2.529261
98.922586,2.535397
98.915308,2.539433
98.912786,2.542411
98.911572,2.542683
98.91033,2.542961
98.874302,2.595411
98.819269,2.473377
98.806127,2.475416
98.95313,2.447691
98.834897,2.67813
98.836638,2.678619
98.836611,2.678536
98.89733,2.559066
98.931008,2.529261
98.922586,2.535397
98.915308,2.539433
98.912786,2.542411
98.911572,2.542683
98.91033,2.542961
98.909788,2.544755
98.871599,2.598911
98.871144,2.615302
98.871905,2.616958
98.87228,2.61745
98.87228,2.61745
98.868272,2.625022
98.86373,2.6323
98.95203,2.516097
98.955175,2.511869
98.957697,2.50825
98.956261,2.503688
98.962,2.494827
98.976583,2.472483
98.977188,2.457944
98.738772,2.524152
98.738072,2.524513
98.725652,2.539825
98.725711,2.540388
98.721422,2.561844
98.857177,2.669513
98.721422,2.561844
98.977188,2.457941
98.692497,2.633425
98.688986,2.645547
98.6901,2.665152
98.691866,2.70025
98.69295,2.712955
98.693588,2.716911
98.694172,2.719419
98.695611,2.7266
98.696097,2.728247
98.696127,2.728247
98.697122,2.730708
98.790788,2.731841
98.799466,2.723827
98.805897,2.712908
98.806111,2.712052
98.807125,2.711861
98.819499,2.473055
98.816091,2.697619
98.835174,2.678761
98.836141,2.679175
98.832786,2.679094
98.836363,2.679238
98.836341,2.679202
98.83635,2.679066
98.836483,2.67893
98.8365,2.678975
98.836586,2.678886
98.836641,2.678605
98.836594,2.678583
98.851833,2.677833
98.851833,2.677833
98.851833,2.677833
98.851833,2.677833
98.851833,2.677833
98.851833,2.677833
98.851833,2.677833
98.851833,2.677833
98.853666,2.657666
98.853666,2.657666
98.853666,2.657666
98.853666,2.657666
98.853666,2.657666
98.853666,2.657666
98.830833,2.677833
98.830833,2.677833
98.830833,2.677833
98.830833,2.677833
98.830833,2.677833
98.830833,2.677833
98.830833,2.677833
98.830833,2.677833
98.830833,2.677833
98.830833,2.677833
98.830833,2.677833
98.830833,2.677833
98.830833,2.677833
98.809833,2.710666
98.809833,2.710666
98.809833,2.710666
98.809833,2.710666
98.809833,2.710666
98.809833,2.710666
98.809833,2.710666
98.809833,2.710666
98.809833,2.710666
98.809833,2.710666
98.809833,2.710666
98.809833,2.710666
98.809833,2.710666
98.809833,2.710666
98.809833,2.710666
98.809833,2.710666
98.809833,2.710666
98.809833,2.710666
98.809833,2.710666
98.809833,2.710666
98.809833,2.710666
98.809833,2.710666
98.809833,2.710666
98.809833,2.710666
98.809833,2.710666
98.809833,2.710666
98.809833,2.710666
98.809833,2.710666
98.809833,2.710666
98.809833,2.710666
98.809833,2.710666
98.809833,2.710666
98.809833,2.710666
98.809833,2.710666
98.809833,2.710666
98.809833,2.710666
98.809833,2.710666
98.809833,2.710666
98.809833,2.710666
98.809833,2.710666
98.809833,2.710666
98.809833,2.710666
98.809833,2.710666
98.8395,2.6795
98.8395,2.6795
98.8395,2.6795
98.8395,2.6795
98.851833,2.677833
98.851833,2.677833
98.851833,2.677833
98.851833,2.677833
98.856353,2.669312
98.762773,2.831597
98.762773,2.831597
98.762773,2.831597
98.762773,2.831597
98.762773,2.831597
98.762773,2.831597
98.762773,2.831597
98.769611,2.828496
98.769611,2.828496
98.769611,2.828496
98.769611,2.828496
98.769611,2.828496
98.769611,2.828496
98.769611,2.828496
98.769611,2.828496
98.769611,2.828496
98.769611,2.828496
98.769611,2.828496
98.851833,2.677833
98.851833,2.677833
98.851833,2.677833
98.851833,2.677833
98.851833,2.677833
98.851833,2.677833
98.851833,2.677833
98.851833,2.677833
98.851833,2.677833
98.851833,2.677833
98.851833,2.677833
98.851833,2.677833
98.851833,2.677833
98.851833,2.677833
98.851833,2.678166
98.851833,2.678166
98.851833,2.678166
98.851833,2.678166
98.851833,2.678166
98.856182,2.669055
98.648643,2.543271
98.928527,2.666071
98.928527,2.666071
98.928527,2.666071
98.928527,2.666071
98.928527,2.666071
98.928527,2.666071
98.639533,2.551966
98.867959,2.624674
98.867579,2.625503
98.8643,2.631294
98.862633,2.634309
98.854932,2.669858
98.85589,2.66928
98.86555,2.648632
98.854932,2.669858
98.862109,2.652248
98.850409,2.671252
98.933611,2.658055
98.933333,2.658055
98.935833,2.665833
98.935833,2.665833
98.85,2.666666
98.85,2.666666
98.85,2.666666
98.85,2.666666
98.85,2.666666
98.85,2.666666
98.85,2.666666
98.85,2.666666
98.85,2.666666
98.85,2.666666
98.85,2.666666
98.85,2.666666
98.85,2.666666
98.85,2.666666
98.85,2.666666
98.85,2.666666
98.85,2.666666
98.85,2.666666
98.85,2.666666
98.85,2.666666
98.85,2.666666
98.85,2.666666
98.85,2.666666
98.85,2.666666
98.85,2.666666
98.85,2.666666
98.85,2.666666
98.85,2.666666
98.85,2.666666
98.85,2.666666
98.85,2.666666
98.85,2.666666
98.85,2.666666
98.85,2.666666
98.85,2.666666
98.85,2.666666
98.85,2.666666
98.85,2.666666
98.85,2.666666
98.85,2.666666
98.85,2.666666
98.85,2.666666
98.85,2.666666
98.85,2.666666
98.85,2.666666
98.85,2.666666
98.85,2.666666
98.85,2.666666
98.85,2.666666
98.85,2.666666
98.85,2.666666
98.85,2.666666
98.764644,2.83142
98.769747,2.828647
98.769829,2.828351
98.769177,2.828585
98.769497,2.828589
98.769567,2.828567
98.781587,2.819582
98.787856,2.814037
98.789484,2.814561
98.815276,2.814248
98.827774,2.783181
98.819207,2.779561
98.822801,2.778202
98.826383,2.777407
98.832823,2.763066
98.845671,2.754707
98.86296,2.747825
98.87553,2.74179
98.870919,2.741235
98.875943,2.737808
98.877246,2.736264
98.878527,2.735095
98.938606,2.677066
98.938575,2.676916
98.938684,2.672369
98.938684,2.672369
98.938684,2.672369
98.938684,2.672369
98.930967,2.671736
98.925207,2.671676
98.918681,2.665208
98.93308,2.665081
98.86421,2.652935
98.863702,2.652856
98.862628,2.652821
98.860855,2.664862
98.8604,2.662335
98.860627,2.66304
98.860597,2.662574
98.860559,2.661522
98.861035,2.65173
98.862062,2.652444
98.862209,2.65246
98.862349,2.652493
98.862499,2.652573
98.862522,2.65417
98.862545,2.65574
98.862555,2.65602
98.862566,2.656299
98.862866,2.669956
98.859279,2.675035
98.857215,2.676742
98.852552,2.67843
98.846466,2.680402
98.836934,2.678812
98.836722,2.678593
98.836723,2.678595
98.836729,2.678595
98.836711,2.678583
98.836693,2.678632
98.836703,2.678634
98.836565,2.678879
98.836539,2.678815
98.836553,2.678815
98.836557,2.678753
98.836555,2.678816
98.836173,2.679138
98.83631,2.679449
98.836494,2.679573
98.836861,2.680411
98.836921,2.680648
98.836914,2.680715
98.836898,2.680733
98.836908,2.680764
98.838541,2.682298
98.849104,2.682135
98.866241,2.68041
98.886135,2.676762
98.895473,2.674588
98.918441,2.669864
98.922283,2.669054
98.923696,2.668705
98.935867,2.665555
98.935867,2.665555
98.943607,2.666658
98.944228,2.6707
98.947596,2.66632
98.943026,2.661031
98.942648,2.661154
98.942563,2.661354
98.942742,2.661424
98.943614,2.661732
98.943041,2.661314
98.942708,2.661395
98.942761,2.661601
98.942662,2.661452
98.94248,2.661408
98.94277,2.661508
98.943068,2.661423
98.943335,2.661895
98.943337,2.661881
98.942542,2.661967
98.942489,2.662034
98.94271,2.661868
98.943128,2.662207
98.943398,2.662199
98.943443,2.662211
98.943661,2.661402
98.943701,2.661385
98.943703,2.661386
98.931667,2.664558
98.931178,2.664822
98.930981,2.664892
98.930909,2.664889
98.931182,2.664876
98.930916,2.664974
98.931287,2.664874
98.937682,2.677464
98.941423,2.672896
98.93958,2.673643
98.93944,2.673958
98.932146,2.67991
98.926283,2.683154
98.92393,2.689889
98.922844,2.696739
98.922552,2.699889
98.925548,2.702106
98.926407,2.702505
98.927043,2.70356
98.926938,2.70427
98.976583,2.757734
99.025079,2.79958
98.862518,2.652585
98.862503,2.652624
98.862564,2.652681
